411459 178356 449
553555 457565 470
766475 212625 509
589385 386539 470
548922 880879 525
644815 388324 509
130874 612487 470
781026 916918 525
772714 911067 525
716394 762918 424
299839 835586 509
699324 642840 442
857122 167936 525
53863 571847 470
38128 229215 386
813809 744578 468
215535 130534 383
601371 96621 470
358453 987417 525
927217 231224 525
380198 199670 443
866913 173482 525
468665 427763 444
893309 90458 525
952192 332798 525
944652 152749 525
591997 400869 470
241857 696255 509
533097 248616 470
256205 521433 470
646309 551214 509
710653 264186 509
602753 286189 470
467149 366440 449
606766 890664 525
190114 214923 373
422717 786890 509
955486 141314 525
272793 328884 389
137198 366275 443
947584 64837 525
688042 871450 525
677764 782759 504
996310 899273 507
470156 22607 449
725043 880626 525
800197 803811 406
675965 916457 525
666732 691191 398
89410 214383 383
864601 780364 525
758800 292567 509
708545 629961 504
982694 355883 525
937115 894223 476
305973 921928 525
351309 466270 449
537981 278527 470
275896 757772 509
598566 42797 470
817060 172352 509
568791 121161 470
280300 572526 470
236629 473830 449
561834 176924 470
115472 428367 449
728173 636311 504
732853 213610 509
705990 358137 509
881985 617451 525
441676 236001 449
676298 117240 509
40670 407224 443
249148 815957 509
713940 425969 509
950483 328973 525
834450 599819 509
243696 918615 525
773885 328227 509
780940 916918 525
620893 183989 470
73874 861409 525
189966 907483 525
329749 502969 449
645827 221593 509
429504 743737 509
572140 956806 525
634474 63045 509
172021 189073 365
814296 517308 509
127077 632931 509
288826 512004 470
650843 574799 509
969369 150593 525
437370 895994 525
130602 227294 386
114673 424253 449
241362 128788 443
941482 370157 525
668691 944812 525
209368 224321 386
972865 213144 525
286247 696771 509
3701 590088 470
610423 136930 470
440707 745229 509
976937 348070 525
918925 801710 525
290128 655626 509
511156 299342 449
182053 9608 383
126256 795176 509
149313 244869 443
683688 17431 509
2069 211819 383
715834 138951 509
193647 786846 509
16458 32787 308
939048 26373 525
283035 930311 525
820836 835775 419
833810 34224 509
781356 568817 509
832064 487143 509
24424 271349 443
454885 766573 509
554030 434156 470
213223 33392 383
254584 986737 525
188824 963646 525
917253 864506 476
386889 760039 509
731962 596794 509
170204 727736 509
613258 947699 525
814870 970234 525
451327 674871 509
499470 15571 449
592910 698510 509
645326 187682 509
586846 596209 403
997102 800541 525
117225 623816 470
887147 800830 525
414785 206470 449
30278 542418 470
868787 128386 525
630277 696074 442
945570 78885 525
989913 863317 507
431401 891313 525
518579 436633 470
568963 133545 470
460303 377774 449
715199 303077 509
765486 996965 525
11437 536312 470
495926 541812 470
400283 858343 525
996138 510867 525
981158 906713 507
608017 253676 470
763043 669595 504
27356 257695 443
493385 468299 426
14484 687254 509
385440 868775 525
861735 245703 525
366186 139715 443
794309 35492 509
434198 696329 509
644156 941206 525
383028 402488 436
757535 251548 509
20081 887133 525
334940 480651 449
267369 63640 443
587759 192169 470
973428 880661 507
249553 308969 407
221137 816853 509
977622 545145 525
41729 521495 470
613914 364637 470
319264 105489 443
600138 46630 470
291740 482220 449
223271 836999 509
190965 47577 383
449309 272610 449
932117 494169 525
711612 124334 509
915916 434964 525
368909 883881 525
687944 937462 525
652899 687943 442
141393 652800 509
83192 445895 449
891446 403491 525
428427 179580 449
930249 191210 525
176087 641888 509
210551 32059 383
779465 79813 509
212892 400242 443
701933 84146 509
563031 427421 470
670549 828723 504
330002 694596 509
559291 516513 452
802059 970665 525
108465 431586 449
712957 611610 509
246303 771955 509
763008 953968 525
585556 281150 470
816578 62127 509
193024 712701 509
792833 405142 509
132867 752746 509
145696 623741 470
337209 58142 443
733578 237064 509
733947 781742 468
231310 298597 407
690888 962687 525
169425 968506 525
737801 877679 525
436718 839775 525
958477 684537 525
652874 340519 509
924611 874686 476
702298 272038 509
588660 373358 470
91359 777095 509
149393 836726 509
207130 708433 509
758303 547209 509
380649 601833 470
646847 216849 509
217027 828922 509
983023 845737 507
388456 501262 449
192089 251036 443
647095 962070 525
339526 188022 443
508556 432218 444
983203 128983 525
735720 573590 509
558219 726338 509
274205 230177 443
250511 871695 525
289814 237494 407
913843 988531 507
409204 229613 443
534217 324637 470
201048 263282 443
401011 216015 443
213899 756987 509
234894 18296 443
52767 967762 525
275343 111064 443
114528 971491 525
37946 340111 443
473824 360101 449
103652 731497 509
780582 226430 509
891531 799197 525
668643 83545 509
941025 466206 525
22305 361529 443
674507 647081 442
58917 621522 470
293616 64971 443
76772 304497 443
758675 734491 424
773842 143842 509
349436 717105 509
808587 102760 509
89817 227865 386
455054 664569 509
828353 239768 509
824552 250875 509
837826 822966 525
405138 754657 509
594842 217164 470
173083 47126 383
845601 171927 525
114685 557929 470
101795 224278 386
230736 523994 470
878640 473443 525
200127 353195 443
58957 993832 525
568705 622081 447
797255 17171 509
261820 84842 443
617458 833492 509
725935 392355 509
606750 442703 470
997883 366677 525
972564 84104 525
940891 908069 507
687201 58700 509
851023 41258 525
941858 848494 507
849010 783294 525
573199 992466 525
766466 491467 509
634957 414664 509
736054 963349 525
770640 875267 525
952517 158168 525
917305 523553 525
490743 42843 449
251323 696346 509
773441 160363 509
755565 643813 504
143330 323575 443
499454 800078 509
534040 658300 509
816056 580158 509
273940 485002 449
321652 83592 443
351194 358943 379
447937 654387 509
373120 284776 441
835023 927827 525
269577 621414 470
979932 66485 525
508443 392534 449
169292 362927 443
1699 701024 509
559235 292099 470
632608 141150 509
695585 22787 509
914089 695004 525
149341 709869 509
991578 719688 525
194596 844643 525
13873 771375 509
711781 456163 509
741481 191042 509
189954 355200 443
141215 633427 509
194590 680985 509
565664 226690 470
951744 592222 525
387749 763645 509
756048 572311 509
817469 328946 509
115443 274218 443
937656 612681 525
2362 503638 449
414287 368316 449
1069 34024 308
749868 689938 504
620956 181169 470
964932 381235 525
783748 279605 509
38031 51651 314
98632 133937 354
895003 710962 525
773916 853613 525
385889 180370 443
812909 31284 509
286971 881463 525
121662 82937 354
746005 972918 525
612847 926781 525
188816 427380 449
404676 65274 443
160526 421618 449
751492 649634 504
439742 596274 470
986898 508783 525
396298 687521 509
503769 282837 449
63577 356145 443
577619 593950 434
171791 65533 383
623423 97224 470
356809 188498 443
265213 711966 509
93762 422163 449
173904 615760 470
974025 381878 525
175858 156363 370
685551 292857 509
389333 129974 443
756648 627296 504
141154 902670 525
754517 880617 525
164146 701917 509
532679 627131 509
46768 477874 449
658554 343474 509
25555 2957 282
935941 872138 476
147630 150461 370
158459 315992 443
222168 283129 443
435900 915056 525
933286 545001 525
97110 768555 509
726415 339528 509
405277 920724 525
399358 174856 443
721884 685449 504
322411 868838 525
400355 849678 525
863138 748317 525
663457 698701 442
138035 309041 443
733619 788092 468
436100 248416 449
761855 131771 509
407710 632319 509
205294 28739 383
429096 101638 449
668593 697711 442
558238 851614 525
455802 135835 449
770919 501159 509
21628 888354 525
21643 778654 509
444590 60245 449
4392 610125 470
507533 156981 449
460703 710849 509
185542 127934 383
244983 423783 449
45853 432063 449
566928 762112 509
304549 463306 449
798889 36029 509
601514 223177 470
882621 512383 525
821862 161323 509
986373 490421 525
731715 309034 509
344999 793903 509
329930 171193 443
712248 336730 509
938420 662988 525
95453 511629 449
921816 316098 525
424957 140407 449
121226 772020 509
67150 347145 443
290973 213120 443
531501 62721 470
588270 296045 470
446218 161272 449
236035 363965 441
522640 488207 470
87980 874579 525
53578 180066 383
766415 82894 509
597907 660099 509
60981 420747 449
831908 332289 509
266045 594025 470
505924 666460 509
325005 410187 449
398481 986882 525
440937 360009 449
702364 237862 509
586605 220564 470
682107 453108 509
688979 625144 509
977807 80175 525
545060 784702 509
727405 530735 509
590890 135421 470
26202 938392 525
90869 292962 443
531177 316270 470
249870 772745 509
585853 291000 470
356887 74785 443
718688 798988 468
982920 310445 525
769527 313463 509
547972 29372 470
214865 263421 443
501984 722308 509
802011 969975 525
69707 652809 509
293161 954632 525
376232 895018 525
771913 316448 509
308538 482371 449
276292 954787 525
997172 305623 525
772065 910590 525
930734 255225 525
757742 916205 525
124374 70856 354
716232 771971 468
653026 960372 525
787601 856249 525
574783 251899 470
528830 41263 470
935571 86610 525
587798 350568 470
420846 454825 418
762539 931601 525
511872 498997 426
367359 649653 509
847062 467559 525
211240 707813 509
439983 124889 449
724438 29648 509
464147 949918 525
456757 703969 509
479783 541687 470
811555 594643 509
474740 44158 449
880265 800892 525
60246 409890 443
19985 482821 449
414825 34305 449
655621 313991 509
732026 74048 509
299630 125903 443
121018 137537 344
908122 897765 445
578180 878141 525
619853 153878 470
674016 882000 525
33176 536630 470
115283 287490 443
184269 376752 443
520129 719727 509
240440 511292 449
830138 592324 509
935342 184570 525
845688 564822 525
326649 318969 384
528510 186713 470
283402 290091 389
662018 42964 509
951942 903396 507
346324 476717 449
65907 970024 525
678251 375887 509
349509 634893 509
238771 73189 443
4672 994157 525
830054 571517 509
140137 957346 525
363429 145393 443
26199 250389 443
248263 383091 441
456104 599933 470
158274 508580 449
2332 74148 340
388685 18435 443
135935 263528 443
574010 505187 470
424314 920113 525
57580 499905 449
84116 177618 383
540015 937014 525
686117 616529 509
560486 684495 509
934627 329093 525
464970 753077 509
310031 705430 509
572683 97419 470
425581 908781 525
47304 932593 525
887480 977026 507
881419 278981 525
983224 14425 525
152928 566309 470
704754 478785 509
184049 392688 443
477921 675172 509
926867 635203 525
477573 977067 525
10959 300032 443
921979 537944 525
168681 942194 525
508253 340504 449
805943 237787 509
80410 852519 525
118285 887578 525
730161 957319 525
584758 840130 525
942487 123152 525
987665 177768 525
962688 927970 507
932158 639874 525
377123 524722 470
728163 100279 509
563418 942945 525
123846 700192 509
75030 4665 340
615381 323699 470
879445 609721 525
52996 986012 525
507884 344312 449
924405 895824 476
271817 112212 443
800827 202515 509
726483 867250 525
2817 325111 443
964559 86700 525
388567 295887 441
16453 262053 443
821211 343882 509
233245 180165 443
64141 632107 509
383224 321628 441
436006 508415 444
133476 803371 509
476470 88347 449
374837 814803 509
381683 852132 525
998857 975176 440
23221 45895 324
824456 44395 509
571758 538293 452
403195 506257 449
659357 879839 525
178563 713997 509
604926 672039 509
85284 40824 351
326205 190275 443
427874 675560 509
704874 443277 509
123845 106316 349
492089 83736 449
328987 373094 441
749395 537540 509
418155 741505 509
982965 978243 427
499013 210866 449
831992 581005 509
118758 252505 443
948059 125572 525
659513 553670 509
15324 246223 443
226646 779888 509
31087 114943 354
841139 435338 525
697460 402518 509
738601 58814 509
655818 5952 509
148909 776430 509
272250 289825 389
437477 718245 509
935485 542982 525
219628 358111 443
626437 660216 429
577095 154869 470
803455 927784 525
319462 192655 443
762985 339749 509
609513 194464 470
948703 351190 525
177676 21493 383
652877 797971 504
96431 93114 328
251292 750945 509
695769 74462 509
677384 893935 525
657166 391820 509
620537 944131 525
294208 424718 449
591756 364957 470
323217 465979 449
712822 992408 525
222933 584091 470
505218 409334 449
492050 658351 509
777374 864623 525
293952 615094 470
72376 265016 443
810064 375144 509
974330 734135 525
499666 472253 426
357311 41697 443
269661 291116 407
612943 331258 470
92402 339108 443
126567 400456 443
426385 100848 449
885444 312886 525
134425 737431 509
264986 991305 525
201559 933878 525
806999 293788 509
113649 417912 449
380076 870920 525
121544 929802 525
458207 457650 338
549753 58241 470
283478 915849 525
181474 155799 383
776023 746563 468
880965 164889 525
41990 27822 324
412024 467173 444
506871 377642 449
865236 210833 525
9278 148566 375
815468 227042 509
873170 878807 432
520944 722129 509
544670 987369 525
837465 621320 509
330455 889223 525
715410 430772 509
427744 569254 470
527332 256901 470
407903 215572 443
437623 696022 509
577066 840639 525
661196 389420 509
176537 689241 509
371247 867496 525
677244 624797 509
495120 935330 525
275194 157905 443
672073 967008 525
178976 698804 509
997445 69183 525
207671 35352 383
940395 463868 525
451440 362250 449
809768 715060 468
489035 530224 470
741517 50647 509
462186 408329 449
372896 128041 443
687358 203203 509
938181 650595 525
601088 107759 470
537791 505041 470
968810 269527 525
93648 335335 443
928061 824626 525
779407 326451 509
653854 521322 509
101133 623882 470
564453 59140 470
986164 144832 525
545490 972670 525
284511 191349 443
729568 162089 509
201058 218656 386
244242 361310 441
907636 982806 507
79212 318090 443
693595 238129 509
61009 404733 443
280916 455784 449
926475 398646 525
21462 803612 509
21137 344191 443
636261 29337 509
567585 981828 525
871717 173494 525
906172 176228 525
955633 295808 525
278440 408859 441
333998 579327 470
826319 852828 525
271147 380484 441
664977 853370 525
420021 901834 525
759915 704163 504
886721 934511 476
8248 591755 470
152117 757437 509
408514 87350 443
499464 903834 525
397783 839555 525
57225 535593 470
177551 679338 509
78398 603852 470
716457 894370 525
529553 746192 509
508960 656477 509
112141 145013 375
58611 875774 525
368505 894520 525
335712 550243 470
316348 38158 443
247743 359659 441
801357 596638 509
276751 291270 389
735384 217777 509
370114 898023 525
395777 840920 525
46391 534706 470
796648 232670 509
14534 357344 443
856595 124238 525
552210 270535 470
771089 531482 509
405504 673388 509
743868 52389 509
872299 639655 525
489004 423590 444
59781 500823 449
207354 408632 443
716106 400515 509
183990 388417 443
797788 278322 509
33205 336061 443
529972 94839 470
471374 587773 470
129834 871128 525
735837 736646 318
2739 317657 443
358529 720332 509
375232 797201 509
870453 282436 525
299822 439096 449
328801 855863 525
527857 36003 470
803777 50266 509
866696 311646 525
42040 397879 443
233096 738913 509
279240 259545 407
625651 705866 509
211666 418703 449
734448 675659 504
201966 501348 449
37816 970759 525
292084 839263 525
556234 923878 525
645334 524519 509
216786 834211 509
151257 619646 470
619909 221910 470
291591 936162 525
262611 821605 509
622279 574795 447
341290 225433 443
469112 646823 509
701923 421489 509
330173 167949 443
210590 483845 449
378162 9614 443
465097 133209 449
690884 664217 442
514300 206683 470
47236 482951 449
391324 239698 441
853097 995203 507
413424 111454 449
133521 901026 525
658900 424239 509
444467 95267 449
45768 764447 509
953975 1379 525
422375 563015 470
198754 939774 525
366547 566912 470
176168 170501 347
603569 449236 470
403774 888489 525
222497 15753 386
271461 838460 525
444021 723057 509
803506 335881 509
371633 150123 443
463497 769364 509
313999 816250 509
783324 411850 509
184383 898054 525
398112 244733 441
115024 460661 449
725927 6571 509
531898 561179 452
44541 908700 525
267174 227500 443
46909 704816 509
985299 828944 525
596925 718859 509
579920 328375 470
879513 876669 401
556701 802800 509
615862 865001 525
437970 121929 449
801929 563466 509
966631 435224 525
518242 13190 470
876651 464119 525
938317 978034 507
698801 428449 509
266447 565282 470
483394 432712 444
282275 707083 509
503151 994953 525
442545 278343 449
156002 785880 509
805841 862987 525
174568 57717 383
382067 493007 449
718461 362472 509
898435 555287 525
524949 312763 470
920125 891258 476
262699 614129 470
782908 630810 504
510398 940732 525
601810 769664 509
406218 483543 449
18221 967301 525
604126 324463 470
936626 237891 525
54728 517905 470
289806 87446 443
356474 383417 423
998966 743417 525
967003 24059 525
816588 882909 525
192157 377963 443
825844 628782 504
169056 860565 525
287720 199977 443
913351 41713 525
915663 90693 525
413512 103125 449
877284 613241 525
947179 447339 525
740992 268734 509
287626 67150 443
289835 239586 407
702314 318496 509
885525 380884 525
147915 141909 375
492944 877400 525
714631 346863 509
548686 181940 470
119342 701016 509
37526 823193 509
876557 248538 525
74938 615381 470
61147 936220 525
4015 714587 509
308229 305871 371
522211 688249 509
236823 346862 441
610780 724153 509
17547 107208 354
100428 839425 525
34116 642600 509
274389 101457 443
74245 139738 354
836454 612963 509
144015 7922 375
121569 156167 383
690483 165290 509
782338 244295 509
952196 737948 525
278006 289743 389
777875 289140 509
888492 323659 525
293388 448927 449
770005 86629 509
440085 773385 509
40843 657600 509
398805 595903 470
833908 352370 509
145856 547607 470
884890 860947 432
235397 230629 443
491098 100928 449
351684 777391 509
656301 797619 504
120125 594378 470
301580 437781 449
200773 949995 525
944551 325588 525
217466 201890 386
468909 263601 449
347480 856249 525
332773 845282 525
368165 725375 509
847162 59364 525
86978 857181 525
835484 956206 525
777840 919083 525
712744 18902 509
853071 798838 525
360245 845385 525
877362 903696 445
354031 126707 443
301578 710383 509
186062 801704 509
978206 964766 458
