122823 542526 470
256207 684544 509
222840 187125 386
350401 950827 525
749402 884049 525
287291 937526 525
298558 314116 384
404309 143265 443
760346 620160 509
429956 760810 509
736566 778886 468
915599 710355 525
538229 158072 470
812973 219114 509
160430 559301 470
810471 35092 509
502631 375194 449
600029 400501 470
16032 472224 449
861867 46057 525
86510 897041 525
354061 760424 509
415276 796947 509
457634 490443 444
177648 71009 383
218826 763095 509
369799 528354 470
699365 356992 509
894206 18485 525
379558 777685 509
496719 461276 426
897057 701789 525
116857 35014 354
540775 980421 525
739723 377977 509
724028 271555 509
178594 238766 443
209470 47519 383
698541 615293 509
891826 328640 525
128782 658702 509
466646 755892 509
477278 459660 444
20021 652019 509
747843 855613 525
3469 495646 449
955261 502091 525
693517 536466 509
844923 789458 525
22465 100258 351
212846 99174 383
683858 288428 509
509055 666029 509
664101 129019 509
870343 583321 525
619593 252488 470
702807 698795 411
265274 343563 407
449027 944663 525
456848 275805 449
658409 474377 509
602824 548712 434
232410 940370 525
180258 620148 470
118281 627142 509
639433 462433 509
953961 491443 525
507793 92377 449
454025 204012 449
620674 455807 470
195283 689629 509
25180 148387 375
634243 105544 509
387499 348586 423
395068 779261 509
475030 200396 449
621534 926597 525
237017 956006 525
417034 813905 509
51330 712154 509
131228 202056 383
964872 717728 525
249539 438795 449
210741 277615 443
109454 274901 443
635867 713493 504
125105 706665 509
261191 140823 443
278650 73517 443
17383 640854 509
92675 926271 525
250838 802014 509
659129 86401 509
273736 391850 441
902895 309972 525
480527 884 449
306550 601168 470
473390 317452 449
383851 545381 470
32987 198545 383
276963 494930 449
496213 153013 449
744950 540983 509
334167 838718 525
760119 496796 509
180934 382471 443
448410 79247 449
111279 257625 443
472178 355347 449
394655 776991 509
847832 783375 525
853655 335367 525
729138 362432 509
164234 305107 443
247727 669777 509
436137 503372 444
313912 846570 525
654257 157262 509
287914 764385 509
446089 299589 449
157696 681469 509
615283 274477 470
502128 296982 449
583771 549156 421
751400 603726 509
677917 73520 509
855636 675586 525
118363 532424 470
353401 654829 509
852764 758471 525
124122 897508 525
995141 853229 507
665915 149474 509
465245 591445 470
583421 464631 470
313924 26563 443
418447 898069 525
711893 180768 509
807512 752546 468
369274 5424 443
941121 722038 525
45873 524597 470
6753 632896 509
416613 437408 418
667517 75757 509
252490 791822 509
733610 836529 468
237521 434355 449
478335 373727 449
360322 390393 436
912650 123093 525
447349 47418 449
433057 491197 444
941465 92120 525
598654 40256 470
892445 797894 525
433825 49796 449
854618 705593 525
531019 914633 525
456569 706329 509
450750 990018 525
652855 555101 509
633151 928984 525
334620 251738 407
605511 285980 470
515926 63549 470
902332 746479 525
137914 153903 375
116128 824447 509
461726 981171 525
728754 342447 509
311254 830563 509
852814 72411 525
243495 273137 407
907533 912013 476
362239 283081 441
91274 940129 525
794130 663394 504
682094 877782 525
171747 402049 443
456770 748687 509
182407 265611 443
252436 742891 509
826637 360568 509
887219 273214 525
184443 571639 470
680915 11292 509
695521 432628 509
965529 284365 525
244373 528982 470
120556 129514 336
440546 31924 449
101644 407745 443
750011 950255 525
983446 639106 525
319090 975690 525
434080 798130 509
255010 252497 363
753610 935336 525
562728 542322 452
216231 226241 386
789211 365731 509
1529 220175 386
365816 585914 470
462074 225842 449
538355 191048 470
495110 843329 525
379377 205638 443
648518 370328 509
698444 277878 509
910442 565359 525
598677 488145 470
829080 667967 504
579023 153457 470
313566 226066 443
478956 86675 449
688514 662227 442
460250 85967 449
260094 490636 449
382179 925414 525
406964 114369 443
430651 636985 509
768640 641656 504
601603 781279 509
522594 63979 470
222834 809404 509
344300 702238 509
439132 262008 449
638612 238075 509
993164 33312 525
19570 503674 449
127514 717354 509
475663 802235 509
74312 731320 509
689215 71056 509
927471 136453 525
870123 926201 476
274457 235392 407
261702 528923 470
848216 748286 525
696653 492064 509
452285 292657 449
325103 809609 509
645644 675223 442
828632 961933 525
88587 795174 509
228306 732213 509
750551 845122 525
949571 496574 525
453843 390680 449
293093 861529 525
741799 278394 509
549966 647632 509
834439 700675 504
236363 293449 407
461124 349006 449
329073 10606 443
577126 595563 434
648671 665211 429
100479 209049 383
469470 174088 449
410752 916470 525
646602 496139 509
66091 576212 470
852309 212906 525
496755 855222 525
77906 73330 351
763808 546666 509
358981 977688 525
415088 535614 470
715181 117741 509
820518 138066 509
272015 953310 525
436919 477138 444
316904 354700 441
643355 747082 504
809062 382369 509
293681 103562 443
82748 157520 383
845842 750460 525
798910 629807 504
951940 640891 525
575364 316622 470
941416 195517 525
552280 191818 470
733228 775783 468
98380 121996 354
868847 653406 525
358678 748002 509
956879 763387 525
739467 933516 525
110178 250006 443
105296 12294 351
387273 293891 441
443075 629050 509
748128 88013 509
971455 985393 427
85003 451659 449
350892 362144 410
946037 70538 525
