653633 450832 509
344969 794225 509
550826 219368 470
374272 600122 470
342160 688070 509
285208 955420 525
787886 122444 509
185293 743283 509
270070 951658 525
948878 140894 525
927122 194417 525
804943 263722 509
748804 850582 525
372158 653408 509
572974 543430 452
162957 75368 383
190766 757408 509
928622 896345 476
4513 975636 525
169693 912734 525
651593 215510 509
376279 320582 441
974729 712638 525
881704 355175 525
251853 898943 525
193442 359024 443
915846 846465 476
134761 795274 509
549907 393310 470
973548 264491 525
143675 147766 357
874478 948791 507
133591 717296 509
280898 872466 525
160013 603725 470
199957 834247 509
939446 271594 525
283941 325262 389
384737 367378 423
592912 353917 470
447345 256381 449
110279 541070 470
598433 675242 509
931617 998025 507
968168 748500 525
443980 919182 525
313848 945620 525
40542 384705 443
4384 778258 509
352457 840594 525
581841 135721 470
368621 255591 441
790845 115223 509
699144 577833 509
1179 826973 509
653321 561192 509
1479 578937 470
764354 701100 504
777991 880574 525
742203 229977 509
636073 475661 509
446946 541565 470
230984 403442 441
559584 975610 525
30445 695773 509
256136 249355 363
592785 840507 525
855145 247348 525
732097 233136 509
787075 771594 437
500314 479667 426
993622 241628 525
388404 851399 525
362901 628349 509
464539 467346 369
748218 95279 509
840184 257627 525
104051 655534 509
242895 501029 449
155066 860758 525
10722 418018 449
336450 822769 509
665714 468566 509
446925 20577 449
512677 283274 470
758619 218151 509
158595 68648 383
193596 262605 443
506842 358010 449
114119 970038 525
699074 828218 504
740003 603776 509
827899 433557 509
991618 337619 525
745778 766977 424
705838 235273 509
879139 764599 525
605755 572858 434
599000 284495 470
139036 978722 525
872207 74552 525
825682 364273 509
207865 4304 383
329279 358896 441
81439 733094 509
905177 154827 525
64863 723337 509
65274 96319 351
535509 988301 525
973843 958817 458
736725 855706 525
78273 998536 525
641044 510000 509
164984 196760 365
348198 752955 509
285660 308076 389
17889 259470 443
249518 66783 443
438881 63167 449
487139 178551 449
988006 548960 525
639505 22639 509
176855 595093 470
967746 710368 525
446697 739991 509
65259 620747 470
165339 153156 383
241591 505669 449
293785 555104 470
441980 247359 449
477824 561388 470
790287 397681 509
815873 63137 509
485491 334563 449
252831 110345 443
170732 433624 449
786642 372219 509
909746 778775 525
662094 345265 509
31681 62295 340
192477 173319 365
129741 348102 443
858985 636626 525
48467 163958 383
54998 790875 509
185483 982757 525
269388 8759 443
429369 543079 470
980498 627012 525
420835 148722 449
961173 659586 525
923421 283078 525
113353 488203 449
813632 752503 468
765415 479920 509
983609 469976 525
575892 150898 470
92477 8134 351
443362 148826 449
455450 943054 525
836655 599158 509
571049 825724 509
162091 953072 525
247456 348673 441
526520 519884 408
479940 560576 470
631594 71293 509
843579 918645 476
24813 126501 354
203647 963586 525
995206 716712 525
920111 908440 476
207346 786667 509
86592 371966 443
189546 311599 443
735696 115649 509
314248 176452 443
964507 952952 414
555459 255723 470
151174 897587 525
768278 347212 509
600601 187904 470
567808 490064 470
603274 866521 525
423652 707420 509
916084 846125 476
681872 312747 509
703463 440393 509
401178 517511 470
949208 33763 525
889063 566436 525
549753 846531 525
758085 782233 468
666532 723215 504
657208 850044 525
829425 234609 509
516434 429592 470
12390 890919 525
786427 34637 509
137422 426598 449
567697 687685 509
564706 427500 470
387048 51086 443
103460 543329 470
526258 565849 452
266635 439017 449
171770 756558 509
845145 77513 525
74187 490122 449
510984 6387 449
176685 594102 470
134050 34863 354
403407 194053 443
140720 624488 470
323904 531146 470
771018 794833 437
208791 427059 449
699342 697330 367
447539 333350 449
525356 198931 470
356189 469622 449
285341 705283 509
851786 737666 525
777523 777093 393
992828 249130 525
346252 933144 525
383687 492975 449
688608 552866 509
275569 20006 443
156410 757496 509
377011 727705 509
787908 486668 509
684764 170554 509
176250 300724 443
402709 930949 525
163841 526227 470
873535 937841 476
241232 650150 509
199864 275538 443
493324 518701 470
48445 480462 449
788594 61876 509
758122 574457 509
375854 306364 441
394012 445200 449
520136 568459 452
855159 921487 476
797374 829133 450
739075 469807 509
828012 970598 525
