1 10 20
100 200 125
201 210 89
900 1000 174
5912 503129 449
15123 614649 470
695728 212231 509
757012 585206 509
575549 262974 470
763629 533039 509
284725 773169 509
778779 895419 525
473592 957159 525
766484 81870 509
323414 497424 449
479168 772788 509
96578 147761 375
316907 859721 525
296817 731293 509
301157 514933 470
181495 829720 509
433237 334979 449
168432 626683 509
658406 774826 504
627708 109808 509
53337 432324 449
573882 531131 452
12141 605907 470
813672 492869 509
505883 193592 449
430301 603975 470
523124 525287 364
647635 37870 509
609976 266061 470
109022 233225 443
104442 735012 509
478004 385277 449
189049 96913 383
715676 697565 504
760347 28493 509
552857 738921 509
574879 421614 470
986773 293108 525
759633 615237 509
341342 368498 441
585369 91349 470
306456 702892 509
348254 962848 525
390085 135988 443
216151 298711 443
471843 515905 470
934854 39775 525
878325 605766 525
883220 394242 525
618544 912922 525
655029 78394 509
626076 747334 509
871975 649899 525
547960 648639 509
892162 923664 476
144737 662790 509
18552 866011 525
7507 106891 354
14476 477069 449
568151 988404 525
651131 790544 504
642621 23608 509
174773 152321 383
273358 705222 509
984550 938182 507
934806 876498 476
780376 727340 468
166389 690834 509
442387 138906 449
204918 65967 383
572051 591237 434
466861 630829 509
10067 491222 449
389138 552196 470
655100 350615 509
984289 453815 525
687705 981119 525
283644 805416 509
459493 97280 449
42206 358953 443
689663 830750 504
686587 511592 509
925385 957782 507
484514 405778 449
588124 694626 509
720429 299952 509
995984 604376 525
467154 936690 525
791546 939544 525
177541 657758 509
967753 803117 525
340487 306640 384
362337 735485 509
223412 857233 525
32086 183384 383
604502 870226 525
692465 319333 509
878823 695980 525
711980 751247 424
554556 829077 509
337278 281230 389
757609 307054 509
273162 31427 443
215603 803016 509
958604 754327 525
299658 984413 525
254751 381215 441
387988 688801 509
830407 143840 509
795140 647251 504
275475 433004 449
83119 750510 509
15209 729624 509
651771 300987 509
957743 896214 507
31846 639148 509
100375 989071 525
559531 726529 509
429166 726050 509
585521 633072 509
381832 118737 443
284592 180181 443
498402 354814 449
463368 282873 449
361101 166543 443
810536 786711 468
342917 767283 509
849387 186438 525
112757 286175 443
312535 238345 407
391407 108198 443
608756 759260 509
285550 637174 509
800184 33884 509
532776 825289 509
213304 713625 509
609664 972372 525
655286 259546 509
112471 218994 386
891669 765079 525
126954 849483 525
738395 418479 509
117481 606912 470
887732 554887 525
514890 145169 470
921851 681967 525
122103 788120 509
4765 691422 509
630636 205481 509
182699 262492 443
787606 896015 525
113497 415146 449
797928 608888 509
270302 520676 470
44088 203679 383
567877 361985 470
752093 68062 509
822452 961310 525
569344 546876 421
885834 726137 525
17860 73976 340
929103 131803 525
481142 870934 525
103448 991696 525
899628 302462 525
66250 495251 449
945258 9205 525
296861 261561 407
385734 687532 509
301212 480360 449
526832 316241 470
637983 432181 509
744264 325733 509
246084 566492 470
431104 985351 525
727535 240384 509
30439 211092 383
252807 131068 443
159798 711414 509
993413 970923 427
594227 691900 509
702813 89493 509
872990 630603 525
774991 735940 468
841183 989866 507
382590 29140 443
770402 925235 525
12666 505725 449
931797 381436 525
721147 980443 525
530648 757241 509
648412 418451 509
244114 938129 525
626259 898362 525
489130 906711 525
47366 465456 449
982569 406875 525
210697 74397 383
497766 406500 449
32267 573979 470
450563 651905 509
618110 513511 452
803310 253926 509
753522 346286 509
702215 518793 509
401063 595268 470
713564 607667 509
625637 128649 470
550212 795586 509
452614 841654 525
992581 776709 525
950262 491150 525
215744 577134 470
39884 721554 509
732331 129377 509
109643 832375 509
570052 533815 452
578996 804419 509
414033 349695 449
360245 917645 525
965306 85609 525
510485 319237 449
394586 816664 509
298086 319114 384
691686 864088 525
150958 120629 375
128591 265516 443
532581 785077 509
959005 272359 525
400003 196545 443
107502 365989 443
250211 519773 470
170295 699899 509
452576 304762 449
837480 883636 525
985753 89441 525
664489 260277 509
749833 690832 504
636745 266277 509
36563 410449 449
708702 331539 509
438804 142725 449
900113 341065 525
556250 465461 470
915302 847090 476
439813 243148 449
246249 485469 449
435801 228461 449
892704 748867 525
