1 10 20
100 200 125
201 210 89
900 1000 174
193 215 120
648 218 144
70 128 119
209 671 145
116 610 144
382 9 144
458 37 144
534 569 137
542 502 124
338 555 142
192 393 144
324 500 144
484 76 144
400 314 144
507 622 137
373 291 144
426 228 144
330 550 142
376 496 142
581 404 142
757 394 171
564 48 144
413 687 145
46 657 145
636 418 142
150 685 145
55 643 144
545 356 142
673 24 145
765 593 171
259 718 171
278 579 144
1 137 122
134 666 145
699 554 145
33 347 144
489 662 145
516 761 171
169 565 144
606 679 145
167 499 144
334 597 142
103 688 145
724 58 171
292 720 171
187 254 128
467 601 142
563 429 142
279 140 128
133 434 144
369 275 144
106 168 122
255 464 144
95 25 116
653 217 145
703 52 171
689 578 145
591 67 144
775 719 153
422 342 134
139 210 125
156 115 122
694 146 145
478 346 134
28 129 122
631 387 142
491 446 142
29 709 171
329 248 144
411 361 134
476 783 171
225 157 125
729 177 171
374 145 144
249 396 144
379 492 142
298 603 144
722 26 171
191 614 144
313 265 131
49 230 125
6 609 144
135 575 144
202 136 125
138 290 128
252 767 171
599 195 144
3 758 171
558 764 171
303 490 144
147 18 122
716 672 171
300 493 144
39 670 145
796 351 171
503 183 144
647 661 145
308 791 171
153 381 144
527 750 171
480 201 144
738 572 171
605 246 144
600 295 144
84 789 171
616 580 132
102 408 144
31 371 144
674 148 145
194 257 128
366 759 171
236 277 123
680 343 145
227 158 125
364 700 145
288 188 128
790 13 171
444 787 171
642 82 144
562 75 144
457 92 144
515 768 171
517 27 144
681 258 145
551 701 145
264 704 171
523 88 144
461 276 144
289 296 118
462 197 144
397 154 144
306 302 43
543 335 142
520 152 144
784 525 171
604 101 144
548 466 142
403 596 142
260 760 171
778 386 171
240 717 171
595 627 132
91 443 144
506 273 144
118 481 144
774 585 171
410 617 142
204 706 171
242 85 128
686 752 171
742 776 153
513 707 171
83 181 125
35 119 119
649 442 145
368 166 144
198 414 144
468 663 145
486 14 144
594 777 171
450 560 142
362 452 134
203 163 125
380 487 142
165 737 171
746 350 171
22 16 21
331 80 144
261 62 128
64 511 144
540 482 142
628 384 142
180 367 144
435 794 171
633 57 144
213 271 128
122 608 144
262 419 144
354 549 142
268 223 128
754 524 171
17 293 128
41 61 113
519 509 124
250 365 144
38 669 145
7 710 171
323 497 144
797 345 171
459 45 144
612 626 132
130 740 171
702 568 145
178 322 131
385 465 134
469 409 134
539 451 142
205 97 125
766 59 171
317 12 131
321 730 171
171 69 125
431 112 144
107 307 128
495 521 124
592 53 144
283 284 105
439 406 134
104 244 128
30 561 144
514 43 144
212 715 171
50 544 144
243 739 171
274 353 144
800 378 171
247 199 128
286 615 144
237 589 144
526 533 124
448 635 142
272 667 145
798 567 171
110 132 122
297 94 128
436 438 116
501 683 145
399 93 144
508 644 137
421 447 116
537 360 142
5 634 144
538 60 144
44 326 131
87 65 116
234 541 144
337 477 134
109 241 128
713 127 171
494 425 142
155 512 144
229 34 125
99 100 26
639 753 171
723 348 171
383 660 145
552 328 142
441 731 171
144 658 145
389 310 144
618 407 142
111 66 119
267 659 145
256 390 144
485 741 171
141 745 171
281 21 128
748 530 171
728 316 171
772 269 171
630 693 145
725 355 171
86 611 144
632 285 144
77 398 144
732 654 171
613 344 142
184 453 144
566 475 142
318 105 131
522 640 137
224 120 125
266 697 145
108 547 144
638 305 144
207 51 125
788 535 171
182 749 171
175 299 128
651 428 145
420 684 145
510 793 171
377 239 144
131 15 122
222 621 144
336 619 142
20 395 144
179 235 128
432 455 116
583 90 144
349 341 126
641 2 144
185 412 144
607 56 144
623 282 144
294 770 171
445 113 144
528 186 144
301 696 145
536 309 144
736 786 153
327 792 171
664 232 145
771 79 171
571 47 144
505 219 144
89 359 144
676 586 145
678 142 145
196 751 171
161 559 144
280 311 118
287 71 128
32 172 125
221 556 144
655 151 145
532 454 142
253 531 144
782 646 171
779 339 171
656 677 145
72 473 144
449 471 129
424 624 142
251 333 144
40 747 171
214 498 144
124 780 171
762 427 171
149 126 122
734 190 171
590 370 142
433 405 134
23 98 119
352 206 144
392 8 144
727 733 140
795 117 171
164 711 171
270 36 128
437 785 171
629 375 142
263 588 144
799 576 171
577 73 144
233 174 128
74 208 125
315 518 144
645 650 145
470 488 142
769 423 171
114 216 125
11 652 145
245 460 144
721 692 171
416 705 171
546 312 144
483 63 144
582 714 171
96 160 122
557 304 144
320 170 131
357 602 142
735 19 171
54 176 125
553 388 142
472 231 144
456 401 134
417 573 142
319 726 171
200 189 120
430 668 145
10 358 144
756 690 171
755 463 171
529 125 144
220 625 144
68 620 144
226 763 171
162 78 122
238 781 171
691 81 145
372 570 142
363 391 121
173 712 171
340 440 134
574 675 145
415 773 171
695 698 127
211 42 125
325 123 131
474 479 54
4 332 144
143 665 145
587 682 145
708 598 171
159 504 144
584 744 171
743 402 171
121 637 144
